…
``` r
# Check for missing data
homicide_df |> 
  filter(is.na(victim_age)) |> 
  count(city_state) |> 
  arrange(desc(n))
```

    ## # A tibble: 28 × 2
    ##    city_state            n
    ##    <chr>             <int>
    ##  1 Richmond, VA        107
    ##  2 Los Angeles, CA      26
    ##  3 Detroit, MI          17
    ##  4 New Orleans, LA      14
    ##  5 Charlotte, NC        13
    ##  6 Houston, TX          12
    ##  7 Oklahoma City, OK    12
    ##  8 Tampa, FL             9
    ##  9 Birmingham, AL        8
    ## 10 Miami, FL             8
    ## # ℹ 18 more rows
…
# Apply to all cities
city_results = 
  homicide_df %>%
  nest(data = -city_state) %>%
  mutate(
    model_results = map(data, fit_city_model)
  ) %>%
  select(-data) %>%
  unnest(model_results) %>%
  arrange(OR)

city_results
```

    ## # A tibble: 47 × 4
    ##    city_state         OR CI_lower CI_upper
    ##    <chr>           <dbl>    <dbl>    <dbl>
    ##  1 New York, NY    0.262    0.133    0.485
    ##  2 Baton Rouge, LA 0.381    0.204    0.684
    ##  3 Omaha, NE       0.382    0.199    0.711
    ##  4 Cincinnati, OH  0.400    0.231    0.667
    ##  5 Chicago, IL     0.410    0.336    0.501
    ##  6 Long Beach, CA  0.410    0.143    1.02 
    ##  7 San Diego, CA   0.413    0.191    0.830
    ##  8 Baltimore, MD   0.426    0.324    0.558
    ##  9 Pittsburgh, PA  0.431    0.263    0.696
    ## 10 Denver, CO      0.479    0.233    0.962
    ## # ℹ 37 more rows
…
